{
  "RepositoryFolder": "_properties",
  "Description": "Kleine Wesen bekommen einen Nachteil (Disadvantage) bei einem Angriffswurf mit schwerem Gerät.",
  "DamageDie": false,
  "Range": 0,
  "Name": "Schwer",
  "Id": "Heavy"
}
