{
  "RepositoryFolder": "_armor",
  "Class": {
      "RepositoryFolder": "_armorClasses",
      "Name": "Mittelschwere Rüstung",
      "Id": "Medium Armor"
    },
  "Rarity": {
    "RepositoryFolder": "_rarities",
    "Name": "Verbreitet",
    "Id": "Common"
  },
  "Weight": 40.0,
  "Cost": {
    "Value": 750.0,
    "Unit": {
      "UnitType": 3,
      "RepositoryFolder": "_currencies",
      "ShortName": null,
      "CpMultiplier": 0.01,
      "SpMultiplier": 0.1,
      "EpMultiplier": 0.5,
      "GpMultiplier": 1.0,
      "PpMultiplier": 10.0,
      "Name": "Gold",
      "Id": "Gold"
    }
  },
  "Description": "Oberteil einer vollwertigen Ritterrüstung",
  "BasePoints": {
    "BaseValue": 15,
    "Ability": {
      "BaseValue": 0,
      "Modifier": 0,
      "Bonus": 0,
      "RepositoryFolder": "_abilities",
      "Name": "Geschicklichkeit",
      "Id": "Dexterity"
    },
    "MaxModifierValue": 2
  },
  "StealthDisadvantage": true,
  "MinStrength": 0,
  "Name": "Ritterrüstung, Obertil",
  "Id": "Half plate"
}
