{
  "Description": "Leichte, einfache Nahkampfwaffe",
  "Category": "Items",
  "DamageDie": {
    "AttackDie": {
      "Type": "d4"
    },
    "RollTwice": false,
    "DamageType": null
  },
  "DamageType": {
    "RepositoryFolder": "_damagetypes",
    "Name": "Verpügeln",
    "Id": "Bludgeoning"
  },
  "AdditionalDamageDie": null,
  "WeaponProperties": [],
  "Rarity": {
    "RepositoryFolder": "_rarities",
    "Name": "Verbreitet",
    "Id": "Common"
  },
  "AttackBonus": 0,
  "Weight": 2.0,
  "Range": {
    "Normal": 0,
    "Maximum": 0
  },
  "Reach": 5,
  "RepositoryFolder": "_weapons",
  "Cost": {
    "Value": 1.0,
    "Unit": {
      "UnitType": 1,
      "RepositoryFolder": "_currencies",
      "ShortName": null,
      "CpMultiplier": 0.1,
      "SpMultiplier": 1.0,
      "EpMultiplier": 5.0,
      "GpMultiplier": 10.0,
      "PpMultiplier": 100.0,
      "Name": "Silber",
      "Id": "Silver"
    }
  },
  "Class": {
    "RepositoryFolder": "_weaponClasses",
    "Name": "Einfache Nahkampfwaffen",
    "Id": "Simple Melee Weapons"
  },
  "Name": "Keule",
  "Id": "Club"
}
