{
  "Description": "Leichter Wurfhammer",
  "Category": "Items",
  "DamageDie": {
    "AttackDie": {
      "Type": "d4"
    },
    "RollTwice": false,
    "DamageType": null
  },
  "DamageType": {
    "RepositoryFolder": "_damagetypes",
    "Name": "Verpügeln",
    "Id": "Bludgeoning"
  },
  "AdditionalDamageDie": null,
  "WeaponProperties": [],
  "Rarity": {
    "RepositoryFolder": "_rarities",
    "Name": "Verbreitet",
    "Id": "Common"
  },
  "AttackBonus": 0,
  "Weight": 2.0,
  "Range": {
    "Normal": 20,
    "Maximum": 60
  },
  "Reach": 5,
  "RepositoryFolder": "_weapons",
  "Cost": {
    "Value": 2.0,
    "Unit": {
      "UnitType": 3,
      "RepositoryFolder": "_currencies",
      "ShortName": null,
      "CpMultiplier": 0.01,
      "SpMultiplier": 0.1,
      "EpMultiplier": 0.5,
      "GpMultiplier": 1.0,
      "PpMultiplier": 10.0,
      "Name": "Gold",
      "Id": "Gold"
    }
  },
  "Class": {
    "RepositoryFolder": "_weaponClasses",
    "Name": "Einfache Nahkampfwaffen",
    "Id": "Simple Melee Weapons"
  },
  "Name": "Leichter Hammer",
  "Id": "Light hammer"
}
