{
  "Description": "Schwere, zweihändige Fernekampfwaffe",
  "Category": "Items",
  "DamageDie": {
    "AttackDie": {
      "Type": "d8"
    },
    "RollTwice": false,
    "DamageType": null
  },
  "DamageType": {
    "RepositoryFolder": "_damagetypes",
    "Name": "Stechen",
    "Id": "Piercing"
  },
  "AdditionalDamageDie": null,
  "WeaponProperties": [
    {
      "RepositoryFolder": "_properties",
      "Description": "Beschreibung der Eigenschaft : Waffen mit der Eigenschaft Munition sind Fernwaffen. Pro Schuß wird eine Munitions-Einheit abgezogen. Man braucht eine Hand zum Aufladen der Waffe. Am Ende einer Schlacht kann man durch suchen die Hälfte wieder auffüllen.",
      "DamageDie": false,
      "Range": true,
      "Name": "Munition",
      "Id": "Ammuntion"
    },
    {
      "RepositoryFolder": "_properties",
      "Description": "Kleine Wesen bekommen einen Nachteil (Disadvantage) bei einem Angriffswurf mit schwerem Gerät.",
      "DamageDie": false,
      "Range": false,
      "Name": "Schwer",
      "Id": "Heavy"
    },
    {
      "RepositoryFolder": "_properties",
      "Description": "Du brauchst beide Hände, um die Waffe zu benutzen.",
      "DamageDie": false,
      "Range": false,
      "Name": "Zweihandwaffe",
      "Id": "Two-Handed"
    },
    {
      "RepositoryFolder": "_properties",
      "Description": "Da es Zeit braucht die Waffe zu laden, kannst du nur einen Schuss pro Aktion abgeben, egal wie viel Angriffsaktionen du normalerweise hättest.",
      "DamageDie": false,
      "Range": false,
      "Name": "Nachladen",
      "Id": "Loading"
    }
  ],
  "Rarity": {
    "RepositoryFolder": "_rarities",
    "Name": "Verbreitet",
    "Id": "Common"
  },
  "AttackBonus": 0,
  "Weight": 2.0,
  "Range": {
    "Normal": 150,
    "Maximum": 600
  },
  "Reach": 0,
  "RepositoryFolder": "_weapons",
  "Cost": {
    "Value": 50.0,
    "Unit": {
      "UnitType": 3,
      "RepositoryFolder": "_currencies",
      "ShortName": null,
      "CpMultiplier": 0.01,
      "SpMultiplier": 0.1,
      "EpMultiplier": 0.5,
      "GpMultiplier": 1.0,
      "PpMultiplier": 10.0,
      "Name": "Gold",
      "Id": "Gold"
    }
  },
  "Class": {
    "RepositoryFolder": "_weaponClasses",
    "Name": "Anspruchsvolle Fernwaffen",
    "Id": "Martial Ranged Weapons"
  },
  "Name": "Langbogen",
  "Id": "Longbow"
}
