{
  "Description": "Nahkampfwaffe",
  "Category": "Items",
  "DamageDie": {
    "AttackDie": {
      "Type": "d8"
    },
    "RollTwice": false,
    "DamageType": null
  },
  "DamageType": {
    "RepositoryFolder": "_damagetypes",
    "Name": "Stechen",
    "Id": "Piercing"
  },
  "AdditionalDamageDie": null,
  "WeaponProperties": [],
  "Rarity": {
    "RepositoryFolder": "_rarities",
    "Name": "Verbreitet",
    "Id": "Common"
  },
  "AttackBonus": 0,
  "Weight": 2.0,
  "Range": {
    "Normal": 0,
    "Maximum": 0
  },
  "Reach": 0,
  "RepositoryFolder": "_weapons",
  "Cost": {
    "Value": 5.0,
    "Unit": {
      "UnitType": 3,
      "RepositoryFolder": "_currencies",
      "ShortName": null,
      "CpMultiplier": 0.01,
      "SpMultiplier": 0.1,
      "EpMultiplier": 0.5,
      "GpMultiplier": 1.0,
      "PpMultiplier": 10.0,
      "Name": "Gold",
      "Id": "Gold"
    }
  },
  "Class": {
    "RepositoryFolder": "_weaponClasses",
    "Name": "Anspruchsvolle Nahkampfwaffen",
    "Id": "Martial Melee Weapons"
  },
  "Name": "Eispickel",
  "Id": "War pick"
}
