{
  "RepositoryFolder": "_tools",
  "Weight": 6.0,
  "Cost": {
    "Value": 30.0,
    "Unit": {
      "UnitType": 3,
      "RepositoryFolder": "_currencies",
      "ShortName": null,
      "CpMultiplier": 0.01,
      "SpMultiplier": 0.1,
      "EpMultiplier": 0.5,
      "GpMultiplier": 1.0,
      "PpMultiplier": 10.0,
      "Name": "Gold",
      "Id": "Gold"
    }
  },
  "Class": {
    "RepositoryFolder": "_toolClasses",
    "Name": "Musikinstrumente",
    "Id": "Musical instruments"
  },
  "Name": "Dudelsack",
  "Id": "Bagpipes"
}
