{
  "RepositoryFolder": "_tools",
  "Weight": 0.0,
  "Cost": {
    "Value": 1.0,
    "Unit": {
      "UnitType": 1,
      "RepositoryFolder": "_currencies",
      "ShortName": null,
      "CpMultiplier": 0.1,
      "SpMultiplier": 1.0,
      "EpMultiplier": 5.0,
      "GpMultiplier": 10.0,
      "PpMultiplier": 100.0,
      "Name": "Silber",
      "Id": "Silver"
    }
  },
  "Class": {
    "RepositoryFolder": "_toolClasses",
    "Name": "Spielzeug",
    "Id": "Gaming sets"
  },
  "Name": "Satz Würfel",
  "Id": "Dice Set"
}
